[
  {
    "@type": "Measurement",
    "term": {
      "@id": "rainfallAnnual",
      "@type": "Term"
    },
    "value": [
      1626.3579587999934
    ],
    "startDate": "2009-01-01",
    "endDate": "2009-12-31",
    "statsDefinition": "spatial"
  }
]
