{
  "fields": [
    "@id"
  ],
  "limit": 1000,
  "query": {
    "bool": {
      "must": [
        {
          "match": {
            "@type": "Term"
          }
        },
        {
          "match": {
            "termType": "water"
          }
        }
      ]
    }
  }
}
